<svg width="84" height="20" xmlns="http://www.w3.org/2000/svg">
<g clip-path="url(#clip0)">
    <path d="M31.4739 4.49951H26.9146C26.6026 4.49951 26.3373 4.72618 26.2886 5.03418L24.4446 16.7255C24.4079 16.9562 24.5866 17.1642 24.8206 17.1642H26.9973C27.3093 17.1642 27.5746 16.9375 27.6233 16.6288L28.1206 13.4755C28.1686 13.1668 28.4346 12.9402 28.7459 12.9402H30.1893C33.1926 12.9402 34.9259 11.4868 35.3786 8.60684C35.5826 7.34684 35.3873 6.35684 34.7973 5.66351C34.1493 4.90218 32.9999 4.49951 31.4739 4.49951ZM31.9999 8.76951C31.7506 10.4055 30.5006 10.4055 29.2919 10.4055H28.6039L29.0866 7.35018C29.1153 7.16551 29.2753 7.02951 29.4619 7.02951H29.7773C30.6006 7.02951 31.3773 7.02951 31.7786 7.49885C32.0179 7.77885 32.0913 8.19485 31.9999 8.76951Z" fill="#253B80"></path>
    <path d="M45.1026 8.71656H42.9193C42.7333 8.71656 42.5726 8.85256 42.544 9.03723L42.4473 9.6479L42.2946 9.42656C41.822 8.74056 40.768 8.51123 39.716 8.51123C37.3033 8.51123 35.2426 10.3386 34.8413 12.9019C34.6326 14.1806 34.9293 15.4032 35.6546 16.2559C36.32 17.0399 37.272 17.3666 38.4046 17.3666C40.3486 17.3666 41.4266 16.1166 41.4266 16.1166L41.3293 16.7232C41.2926 16.9552 41.4713 17.1632 41.704 17.1632H43.6706C43.9833 17.1632 44.2473 16.9366 44.2966 16.6279L45.4766 9.15523C45.514 8.92523 45.336 8.71656 45.1026 8.71656ZM42.0593 12.9659C41.8486 14.2132 40.8586 15.0506 39.596 15.0506C38.962 15.0506 38.4553 14.8472 38.13 14.4619C37.8073 14.0792 37.6846 13.5346 37.7873 12.9279C37.984 11.6912 38.9906 10.8266 40.234 10.8266C40.854 10.8266 41.358 11.0326 41.69 11.4212C42.0226 11.8139 42.1546 12.3619 42.0593 12.9659Z" fill="#253B80"></path>
    <path d="M56.7306 8.7168H54.5366C54.3273 8.7168 54.1306 8.8208 54.012 8.9948L50.986 13.4521L49.7033 9.1688C49.6226 8.9008 49.3753 8.7168 49.0953 8.7168H46.9393C46.6773 8.7168 46.4953 8.9728 46.5786 9.21946L48.9953 16.3115L46.7233 19.5188C46.5446 19.7715 46.7246 20.1188 47.0333 20.1188H49.2246C49.4326 20.1188 49.6273 20.0175 49.7453 19.8468L57.0426 9.31346C57.2173 9.06146 57.038 8.7168 56.7306 8.7168Z" fill="#253B80"></path>
    <path d="M63.9947 4.49951H59.4347C59.1234 4.49951 58.858 4.72618 58.8094 5.03418L56.9654 16.7255C56.9287 16.9562 57.1074 17.1642 57.34 17.1642H59.68C59.8974 17.1642 60.0834 17.0055 60.1174 16.7895L60.6407 13.4755C60.6887 13.1668 60.9547 12.9402 61.266 12.9402H62.7087C65.7127 12.9402 67.4454 11.4868 67.8987 8.60684C68.1034 7.34684 67.9067 6.35684 67.3167 5.66351C66.6694 4.90218 65.5207 4.49951 63.9947 4.49951ZM64.5207 8.76951C64.272 10.4055 63.022 10.4055 61.8127 10.4055H61.1254L61.6087 7.35018C61.6374 7.16551 61.796 7.02951 61.9834 7.02951H62.2987C63.1214 7.02951 63.8987 7.02951 64.3 7.49885C64.5394 7.77885 64.612 8.19485 64.5207 8.76951Z" fill="#179BD7"></path>
    <path d="M77.6226 8.71656H75.4406C75.2533 8.71656 75.094 8.85256 75.066 9.03723L74.9693 9.6479L74.816 9.42656C74.3433 8.74056 73.29 8.51123 72.238 8.51123C69.8253 8.51123 67.7653 10.3386 67.364 12.9019C67.156 14.1806 67.4513 15.4032 68.1766 16.2559C68.8433 17.0399 69.794 17.3666 70.9266 17.3666C72.8706 17.3666 73.9486 16.1166 73.9486 16.1166L73.8513 16.7232C73.8146 16.9552 73.9933 17.1632 74.2273 17.1632H76.1933C76.5046 17.1632 76.77 16.9366 76.8186 16.6279L77.9993 9.15523C78.0353 8.92523 77.8566 8.71656 77.6226 8.71656ZM74.5793 12.9659C74.37 14.2132 73.3786 15.0506 72.116 15.0506C71.4833 15.0506 70.9753 14.8472 70.65 14.4619C70.3273 14.0792 70.206 13.5346 70.3073 12.9279C70.5053 11.6912 71.5106 10.8266 72.754 10.8266C73.374 10.8266 73.878 11.0326 74.21 11.4212C74.544 11.8139 74.676 12.3619 74.5793 12.9659Z" fill="#179BD7"></path>
    <path d="M80.1966 4.81987L78.3252 16.7252C78.2886 16.9559 78.4672 17.1639 78.6999 17.1639H80.5812C80.8939 17.1639 81.1592 16.9372 81.2072 16.6285L83.0526 4.93787C83.0892 4.7072 82.9106 4.49854 82.6779 4.49854H80.5712C80.3852 4.4992 80.2252 4.6352 80.1966 4.81987Z" fill="#179BD7"></path>
    <path d="M5.51057 19.436L5.85923 17.2213L5.08257 17.2033H1.3739L3.95123 0.861284C3.95923 0.811951 3.98523 0.765951 4.02323 0.733284C4.06123 0.700617 4.1099 0.682617 4.16057 0.682617H10.4139C12.4899 0.682617 13.9226 1.11462 14.6706 1.96728C15.0212 2.36728 15.2446 2.78528 15.3526 3.24528C15.4659 3.72795 15.4679 4.30462 15.3572 5.00795L15.3492 5.05929V5.50995L15.6999 5.70862C15.9952 5.86528 16.2299 6.04462 16.4099 6.24995C16.7099 6.59195 16.9039 7.02662 16.9859 7.54195C17.0706 8.07195 17.0426 8.70262 16.9039 9.41662C16.7439 10.238 16.4852 10.9533 16.1359 11.5386C15.8146 12.078 15.4052 12.5253 14.9192 12.872C14.4552 13.2013 13.9039 13.4513 13.2806 13.6113C12.6766 13.7686 11.9879 13.848 11.2326 13.848H10.7459C10.3979 13.848 10.0599 13.9733 9.79457 14.198C9.52857 14.4273 9.35257 14.7406 9.29857 15.0833L9.2619 15.2826L8.6459 19.186L8.6179 19.3293C8.61057 19.3746 8.5979 19.3973 8.57923 19.4126C8.56257 19.4266 8.53857 19.436 8.51523 19.436H5.51057Z" fill="#253B80"></path>
    <path d="M16.0319 5.11133C16.0132 5.23066 15.9919 5.35266 15.9679 5.47799C15.1432 9.71199 12.3219 11.1747 8.71856 11.1747H6.88389C6.44323 11.1747 6.07189 11.4947 6.00323 11.9293L5.06389 17.8867L4.79789 19.5753C4.75323 19.8607 4.97323 20.118 5.26123 20.118H8.51522C8.90056 20.118 9.22789 19.838 9.28856 19.458L9.32056 19.2927L9.93322 15.4047L9.97256 15.1913C10.0326 14.81 10.3606 14.53 10.7459 14.53H11.2326C14.3852 14.53 16.8532 13.25 17.5746 9.54599C17.8759 7.99866 17.7199 6.70666 16.9226 5.79799C16.6812 5.52399 16.3819 5.29666 16.0319 5.11133Z" fill="#179BD7"></path>
    <path d="M15.1693 4.76719C15.0433 4.73052 14.9133 4.69719 14.78 4.66719C14.646 4.63786 14.5086 4.61186 14.3673 4.58919C13.8726 4.50919 13.3306 4.47119 12.75 4.47119H7.84863C7.72796 4.47119 7.6133 4.49852 7.51063 4.54786C7.28463 4.65652 7.11663 4.87052 7.07596 5.13252L6.0333 11.7365L6.0033 11.9292C6.07196 11.4945 6.4433 11.1745 6.88396 11.1745H8.71863C12.322 11.1745 15.1433 9.71119 15.968 5.47786C15.9926 5.35252 16.0133 5.23052 16.032 5.11119C15.8233 5.00052 15.5973 4.90586 15.354 4.82519C15.294 4.80519 15.232 4.78586 15.1693 4.76719Z" fill="#222D65"></path>
    <path d="M7.07595 5.13267C7.11662 4.87067 7.28462 4.65667 7.51062 4.54867C7.61395 4.49933 7.72795 4.472 7.84862 4.472H12.75C13.3306 4.472 13.8726 4.51 14.3673 4.59C14.5086 4.61267 14.646 4.63867 14.78 4.668C14.9133 4.698 15.0433 4.73133 15.1693 4.768C15.232 4.78667 15.294 4.806 15.3546 4.82533C15.598 4.906 15.824 5.00133 16.0326 5.11133C16.278 3.54667 16.0306 2.48133 15.1846 1.51667C14.252 0.454667 12.5686 0 10.4146 0H4.16129C3.72129 0 3.34595 0.32 3.27795 0.755333L0.673285 17.2653C0.621952 17.592 0.873952 17.8867 1.20329 17.8867H5.06395L6.03328 11.7367L7.07595 5.13267Z" fill="#253B80"></path>
</g>
<defs>
    <clipPath id="clip0">
        <rect width="82.6667" height="22" fill="white" transform="translate(0.666626)"></rect>
    </clipPath>
</defs>
</svg>